{
  "head" : {
    "vars" : [ "typeLabel", "attributeLabel" ]
  },
  "results" : {
    "bindings" : [ {
      "attributeLabel" : {
        "xml:lang" : "en",
        "type" : "literal",
        "value" : "Germany"
      },
      "typeLabel" : {
        "xml:lang" : "en",
        "type" : "literal",
        "value" : "Country"
      }
    }, {
      "attributeLabel" : {
        "xml:lang" : "en",
        "type" : "literal",
        "value" : "White"
      },
      "typeLabel" : {
        "xml:lang" : "en",
        "type" : "literal",
        "value" : "Base color"
      }
    } ]
  }
}