{
  "head" : {
    "vars" : [ "typeLabel", "attributeLabel" ]
  },
  "results" : {
    "bindings" : [ {
      "attributeLabel" : {
        "xml:lang" : "en",
        "type" : "literal",
        "value" : "Belgium"
      },
      "typeLabel" : {
        "xml:lang" : "en",
        "type" : "literal",
        "value" : "Country"
      }
    }, {
      "attributeLabel" : {
        "xml:lang" : "en",
        "type" : "literal",
        "value" : "Gelatin silver developing out print"
      },
      "typeLabel" : {
        "xml:lang" : "en",
        "type" : "literal",
        "value" : "Paper type"
      }
    }, {
      "attributeLabel" : {
        "xml:lang" : "en",
        "type" : "literal",
        "value" : "Pelligran"
      },
      "typeLabel" : {
        "xml:lang" : "en",
        "type" : "literal",
        "value" : "Surface Texture"
      }
    }, {
      "attributeLabel" : {
        "xml:lang" : "en",
        "type" : "literal",
        "value" : "Hard"
      },
      "typeLabel" : {
        "xml:lang" : "en",
        "type" : "literal",
        "value" : "Contrast"
      }
    }, {
      "attributeLabel" : {
        "xml:lang" : "en",
        "type" : "literal",
        "value" : "White"
      },
      "typeLabel" : {
        "xml:lang" : "en",
        "type" : "literal",
        "value" : "Base color"
      }
    } ]
  }
}