{
  "head" : {
    "vars" : [ "qid", "label", "manifest" ]
  },
  "results" : {
    "bindings" : [ {
      "qid" : {
        "type" : "literal",
        "value" : "Q742"
      },
      "label" : {
        "type" : "literal",
        "value" : "Diaversal Instruction Manual "
      },
      "manifest" : {
        "type" : "uri",
        "value" : "https://museumstichting.resourcespace.com/iiif/ark%253A%252F33179%252F001-GEV_0011_0004/manifest"
      }
    }, {
      "qid" : {
        "type" : "literal",
        "value" : "Q755"
      },
      "label" : {
        "xml:lang" : "en",
        "type" : "literal",
        "value" : "Diaversal Trademark"
      },
      "manifest" : {
        "type" : "uri",
        "value" : "https://museumstichting.resourcespace.com/iiif/ark%253A%252F33179%252F001-GEV_0011_0001/manifest"
      }
    } ]
  }
}