{
  "head" : {
    "vars" : [ "qid", "label", "manifest" ]
  },
  "results" : {
    "bindings" : [ {
      "qid" : {
        "type" : "literal",
        "value" : "Q759"
      },
      "label" : {
        "xml:lang" : "en",
        "type" : "literal",
        "value" : "Estella Trademark"
      },
      "manifest" : {
        "type" : "uri",
        "value" : "https://museumstichting.resourcespace.com/iiif/ark%253A%252F33179%252F001-GEV_0012_0001/manifest"
      }
    } ]
  }
}