{
  "head" : {
    "vars" : [ "qid", "label", "iiif_manifest" ]
  },
  "results" : {
    "bindings" : [ {
      "qid" : {
        "type" : "literal",
        "value" : "Q564"
      },
      "label" : {
        "xml:lang" : "en",
        "type" : "literal",
        "value" : "Novabrom"
      },
      "iiif_manifest" : {
        "type" : "uri",
        "value" : "https://museumstichting.resourcespace.com/iiif/ark%253A%252F33179%252F001-GEV_0016_0044/manifest"
      }
    }, {
      "qid" : {
        "type" : "literal",
        "value" : "Q565"
      },
      "label" : {
        "xml:lang" : "en",
        "type" : "literal",
        "value" : "Novabrom 8XV"
      },
      "iiif_manifest" : {
        "type" : "uri",
        "value" : "https://museumstichting.resourcespace.com/iiif/ark%253A%252F33179%252FF_2014_0268/manifest"
      }
    }, {
      "qid" : {
        "type" : "literal",
        "value" : "Q566"
      },
      "label" : {
        "xml:lang" : "en",
        "type" : "literal",
        "value" : "Novabrom K8V Postkaarten"
      }
    }, {
      "qid" : {
        "type" : "literal",
        "value" : "Q567"
      },
      "label" : {
        "xml:lang" : "en",
        "type" : "literal",
        "value" : "Novabrom N"
      },
      "iiif_manifest" : {
        "type" : "uri",
        "value" : "https://museumstichting.resourcespace.com/iiif/ark%253A%252F33179%252FF_1992_0764/manifest"
      }
    }, {
      "qid" : {
        "type" : "literal",
        "value" : "Q568"
      },
      "label" : {
        "xml:lang" : "en",
        "type" : "literal",
        "value" : "Novagas"
      },
      "iiif_manifest" : {
        "type" : "uri",
        "value" : "https://museumstichting.resourcespace.com/iiif/ark%253A%252F33179%252F001-GEV_0016_0044/manifest"
      }
    }, {
      "qid" : {
        "type" : "literal",
        "value" : "Q569"
      },
      "label" : {
        "xml:lang" : "en",
        "type" : "literal",
        "value" : "Novagas K10"
      },
      "iiif_manifest" : {
        "type" : "uri",
        "value" : "https://museumstichting.resourcespace.com/iiif/ark%253A%252F33179%252F001-GEV_0016_0044/manifest"
      }
    } ]
  }
}