{
  "head" : {
    "vars" : [ "qid", "label", "iiif_manifest" ]
  },
  "results" : {
    "bindings" : [ {
      "qid" : {
        "type" : "literal",
        "value" : "Q698"
      },
      "label" : {
        "xml:lang" : "en",
        "type" : "literal",
        "value" : "Ronix 1"
      }
    }, {
      "qid" : {
        "type" : "literal",
        "value" : "Q696"
      },
      "label" : {
        "xml:lang" : "en",
        "type" : "literal",
        "value" : "Ronix 5"
      }
    }, {
      "qid" : {
        "type" : "literal",
        "value" : "Q697"
      },
      "label" : {
        "xml:lang" : "en",
        "type" : "literal",
        "value" : "Ronix 8"
      },
      "iiif_manifest" : {
        "type" : "uri",
        "value" : "https://museumstichting.resourcespace.com/iiif/ark%253A%252F33179%252FF_2014_0771/manifest"
      }
    }, {
      "qid" : {
        "type" : "literal",
        "value" : "Q699"
      },
      "label" : {
        "xml:lang" : "en",
        "type" : "literal",
        "value" : "Ronix K8"
      },
      "iiif_manifest" : {
        "type" : "uri",
        "value" : "https://museumstichting.resourcespace.com/iiif/ark%253A%252F33179%252FF_2014_0773/manifest"
      }
    } ]
  }
}