{
  "head" : {
    "vars" : [ "qid", "label", "iiif_manifest" ]
  },
  "results" : {
    "bindings" : [ {
      "qid" : {
        "type" : "literal",
        "value" : "Q700"
      },
      "label" : {
        "xml:lang" : "en",
        "type" : "literal",
        "value" : "Transparex Rapid"
      }
    } ]
  }
}