{
  "head" : {
    "vars" : [ "qid", "label", "production_dates", "iiif_manifest" ]
  },
  "results" : {
    "bindings" : [ {
      "qid" : {
        "type" : "literal",
        "value" : "Q447"
      },
      "label" : {
        "xml:lang" : "en",
        "type" : "literal",
        "value" : "Artona K31N"
      },
      "production_dates" : {
        "type" : "literal",
        "value" : "1936-1964"
      },
      "iiif_manifest" : {
        "type" : "uri",
        "value" : "https://museumstichting.resourcespace.com/iiif/ark%253A%252F33179%252FF_2014_0655/manifest"
      }
    }, {
      "qid" : {
        "type" : "literal",
        "value" : "Q448"
      },
      "label" : {
        "xml:lang" : "en",
        "type" : "literal",
        "value" : "Artona K31V"
      },
      "production_dates" : {
        "type" : "literal",
        "value" : "1936-1964"
      },
      "iiif_manifest" : {
        "type" : "uri",
        "value" : "https://museumstichting.resourcespace.com/iiif/ark%253A%252F33179%252FF_2014_0657/manifest"
      }
    } ]
  }
}