{
  "head" : {
    "vars" : [ "qid", "label", "production_dates", "iiif_manifest" ]
  },
  "results" : {
    "bindings" : [ {
      "qid" : {
        "type" : "literal",
        "value" : "Q602"
      },
      "label" : {
        "xml:lang" : "en",
        "type" : "literal",
        "value" : "Orthobrom K35N"
      },
      "production_dates" : {
        "type" : "literal",
        "value" : "1903-1961"
      },
      "iiif_manifest" : {
        "type" : "uri",
        "value" : "https://museumstichting.resourcespace.com/iiif/ark%253A%252F33179%252FF_2014_0664/manifest"
      }
    }, {
      "qid" : {
        "type" : "literal",
        "value" : "Q603"
      },
      "label" : {
        "xml:lang" : "en",
        "type" : "literal",
        "value" : "Orthobrom K35V"
      },
      "production_dates" : {
        "type" : "literal",
        "value" : "1903-1961"
      },
      "iiif_manifest" : {
        "type" : "uri",
        "value" : "https://museumstichting.resourcespace.com/iiif/ark%253A%252F33179%252FF_2014_0638/manifest"
      }
    }, {
      "qid" : {
        "type" : "literal",
        "value" : "Q604"
      },
      "label" : {
        "xml:lang" : "en",
        "type" : "literal",
        "value" : "Orthobrom K35Z"
      },
      "production_dates" : {
        "type" : "literal",
        "value" : "1903-1961"
      },
      "iiif_manifest" : {
        "type" : "uri",
        "value" : "https://museumstichting.resourcespace.com/iiif/ark%253A%252F33179%252FF_1971_0167/manifest"
      }
    }, {
      "qid" : {
        "type" : "literal",
        "value" : "Q601"
      },
      "label" : {
        "xml:lang" : "en",
        "type" : "literal",
        "value" : "Orthobrom K33N"
      },
      "production_dates" : {
        "type" : "literal",
        "value" : "1903-1961"
      }
    }, {
      "qid" : {
        "type" : "literal",
        "value" : "Q630"
      },
      "label" : {
        "xml:lang" : "en",
        "type" : "literal",
        "value" : "Prestona K34N"
      },
      "production_dates" : {
        "type" : "literal",
        "value" : "1933-1954"
      },
      "iiif_manifest" : {
        "type" : "uri",
        "value" : "https://museumstichting.resourcespace.com/iiif/ark%253A%252F33179%252FF_2014_0647/manifest"
      }
    }, {
      "qid" : {
        "type" : "literal",
        "value" : "Q631"
      },
      "label" : {
        "xml:lang" : "en",
        "type" : "literal",
        "value" : "Prestona K34Z"
      },
      "production_dates" : {
        "type" : "literal",
        "value" : "1933-1954"
      },
      "iiif_manifest" : {
        "type" : "uri",
        "value" : "https://museumstichting.resourcespace.com/iiif/ark%253A%252F33179%252FF_1963_0244/manifest"
      }
    }, {
      "qid" : {
        "type" : "literal",
        "value" : "Q546"
      },
      "label" : {
        "xml:lang" : "en",
        "type" : "literal",
        "value" : "Gevatone K34Z"
      },
      "iiif_manifest" : {
        "type" : "uri",
        "value" : "https://museumstichting.resourcespace.com/iiif/ark%253A%252F33179%252FF_2014_0267/manifest"
      }
    } ]
  }
}