{
  "head" : {
    "vars" : [ "qid", "label", "production_dates", "iiif_manifest" ]
  },
  "results" : {
    "bindings" : [ {
      "qid" : {
        "type" : "literal",
        "value" : "Q579"
      },
      "label" : {
        "xml:lang" : "en",
        "type" : "literal",
        "value" : "Orthobrom 47XZ"
      },
      "production_dates" : {
        "type" : "literal",
        "value" : "1903-1961"
      },
      "iiif_manifest" : {
        "type" : "uri",
        "value" : "https://museumstichting.resourcespace.com/iiif/ark%253A%252F33179%252F001-GEV_0016_0044/manifest"
      }
    }, {
      "qid" : {
        "type" : "literal",
        "value" : "Q586"
      },
      "label" : {
        "xml:lang" : "en",
        "type" : "literal",
        "value" : "Orthobrom 7XZ"
      },
      "production_dates" : {
        "type" : "literal",
        "value" : "1903-1961"
      },
      "iiif_manifest" : {
        "type" : "uri",
        "value" : "https://museumstichting.resourcespace.com/iiif/ark%253A%252F33179%252FF_2014_0352/manifest"
      }
    }, {
      "qid" : {
        "type" : "literal",
        "value" : "Q617"
      },
      "label" : {
        "xml:lang" : "en",
        "type" : "literal",
        "value" : "Orthobrom K8XZ"
      },
      "production_dates" : {
        "type" : "literal",
        "value" : "1903-1961"
      },
      "iiif_manifest" : {
        "type" : "uri",
        "value" : "https://museumstichting.resourcespace.com/iiif/ark%253A%252F33179%252F001-GEV_0016_0044/manifest"
      }
    }, {
      "qid" : {
        "type" : "literal",
        "value" : "Q655"
      },
      "label" : {
        "xml:lang" : "en",
        "type" : "literal",
        "value" : "Ridax 3XZ"
      },
      "production_dates" : {
        "type" : "literal",
        "value" : "1905-1959"
      },
      "iiif_manifest" : {
        "type" : "uri",
        "value" : "https://museumstichting.resourcespace.com/iiif/ark%253A%252F33179%252FF_2014_0566/manifest"
      }
    }, {
      "qid" : {
        "type" : "literal",
        "value" : "Q663"
      },
      "label" : {
        "xml:lang" : "en",
        "type" : "literal",
        "value" : "Ridax 47XZ"
      },
      "production_dates" : {
        "type" : "literal",
        "value" : "1905-1959"
      },
      "iiif_manifest" : {
        "type" : "uri",
        "value" : "https://museumstichting.resourcespace.com/iiif/ark%253A%252F33179%252FF_2014_0596/manifest"
      }
    }, {
      "qid" : {
        "type" : "literal",
        "value" : "Q668"
      },
      "label" : {
        "xml:lang" : "en",
        "type" : "literal",
        "value" : "Ridax 7XZ"
      },
      "production_dates" : {
        "type" : "literal",
        "value" : "1905-1959"
      },
      "iiif_manifest" : {
        "type" : "uri",
        "value" : "https://museumstichting.resourcespace.com/iiif/ark%253A%252F33179%252FF_2014_0748/manifest"
      }
    }, {
      "qid" : {
        "type" : "literal",
        "value" : "Q675"
      },
      "label" : {
        "xml:lang" : "en",
        "type" : "literal",
        "value" : "Ridax 8XZ"
      },
      "production_dates" : {
        "type" : "literal",
        "value" : "1905-1959"
      },
      "iiif_manifest" : {
        "type" : "uri",
        "value" : "https://museumstichting.resourcespace.com/iiif/ark%253A%252F33179%252FF_2014_0612/manifest"
      }
    }, {
      "qid" : {
        "type" : "literal",
        "value" : "Q680"
      },
      "label" : {
        "xml:lang" : "en",
        "type" : "literal",
        "value" : "Ridax 9XV"
      },
      "production_dates" : {
        "type" : "literal",
        "value" : "1905-1959"
      },
      "iiif_manifest" : {
        "type" : "uri",
        "value" : "https://museumstichting.resourcespace.com/iiif/ark%253A%252F33179%252FF_1974_0182/manifest"
      }
    }, {
      "qid" : {
        "type" : "literal",
        "value" : "Q565"
      },
      "label" : {
        "xml:lang" : "en",
        "type" : "literal",
        "value" : "Novabrom 8XV"
      },
      "production_dates" : {
        "type" : "literal",
        "value" : "1921-"
      },
      "iiif_manifest" : {
        "type" : "uri",
        "value" : "https://museumstichting.resourcespace.com/iiif/ark%253A%252F33179%252FF_2014_0268/manifest"
      }
    }, {
      "qid" : {
        "type" : "literal",
        "value" : "Q541"
      },
      "label" : {
        "xml:lang" : "en",
        "type" : "literal",
        "value" : "Gevarto XZ"
      },
      "production_dates" : {
        "type" : "literal",
        "value" : "1947-1964"
      },
      "iiif_manifest" : {
        "type" : "uri",
        "value" : "https://museumstichting.resourcespace.com/iiif/ark%253A%252F33179%252FF_1971_0183/manifest"
      }
    } ]
  }
}