{
  "head" : {
    "vars" : [ "qid", "label" ]
  },
  "results" : {
    "bindings" : [ {
      "label" : {
        "xml:lang" : "en",
        "type" : "literal",
        "value" : "Adox"
      },
      "qid" : {
        "type" : "literal",
        "value" : "Q316"
      }
    }, {
      "label" : {
        "xml:lang" : "en",
        "type" : "literal",
        "value" : "Agfa"
      },
      "qid" : {
        "type" : "literal",
        "value" : "Q312"
      }
    }, {
      "label" : {
        "xml:lang" : "en",
        "type" : "literal",
        "value" : "Agfa-Gevaert"
      },
      "qid" : {
        "type" : "literal",
        "value" : "Q308"
      }
    }, {
      "label" : {
        "xml:lang" : "en",
        "type" : "literal",
        "value" : "Anken"
      },
      "qid" : {
        "type" : "literal",
        "value" : "Q238"
      }
    }, {
      "label" : {
        "xml:lang" : "en",
        "type" : "literal",
        "value" : "Argenta"
      },
      "qid" : {
        "type" : "literal",
        "value" : "Q239"
      }
    }, {
      "label" : {
        "xml:lang" : "en",
        "type" : "literal",
        "value" : "Bayer"
      },
      "qid" : {
        "type" : "literal",
        "value" : "Q240"
      }
    }, {
      "label" : {
        "xml:lang" : "en",
        "type" : "literal",
        "value" : "Belgo's"
      },
      "qid" : {
        "type" : "literal",
        "value" : "Q241"
      }
    }, {
      "label" : {
        "xml:lang" : "en",
        "type" : "literal",
        "value" : "Braun"
      },
      "qid" : {
        "type" : "literal",
        "value" : "Q314"
      }
    }, {
      "label" : {
        "xml:lang" : "en",
        "type" : "literal",
        "value" : "Byk-Guldenwerke"
      },
      "qid" : {
        "type" : "literal",
        "value" : "Q315"
      }
    }, {
      "label" : {
        "xml:lang" : "en",
        "type" : "literal",
        "value" : "Ciba"
      },
      "qid" : {
        "type" : "literal",
        "value" : "Q3576"
      }
    }, {
      "label" : {
        "xml:lang" : "en",
        "type" : "literal",
        "value" : "DuPont"
      },
      "qid" : {
        "type" : "literal",
        "value" : "Q317"
      }
    }, {
      "label" : {
        "xml:lang" : "en",
        "type" : "literal",
        "value" : "FOMU"
      },
      "qid" : {
        "type" : "literal",
        "value" : "Q307"
      }
    }, {
      "label" : {
        "xml:lang" : "en",
        "type" : "literal",
        "value" : "Ferrania"
      },
      "qid" : {
        "type" : "literal",
        "value" : "Q318"
      }
    }, {
      "label" : {
        "xml:lang" : "en",
        "type" : "literal",
        "value" : "Fotobel"
      },
      "qid" : {
        "type" : "literal",
        "value" : "Q247"
      }
    }, {
      "label" : {
        "xml:lang" : "en",
        "type" : "literal",
        "value" : "Foton"
      },
      "qid" : {
        "type" : "literal",
        "value" : "Q319"
      }
    }, {
      "label" : {
        "xml:lang" : "en",
        "type" : "literal",
        "value" : "Gevaert-Agfa"
      },
      "qid" : {
        "type" : "literal",
        "value" : "Q309"
      }
    }, {
      "label" : {
        "xml:lang" : "en",
        "type" : "literal",
        "value" : "Guilleminot"
      },
      "qid" : {
        "type" : "literal",
        "value" : "Q320"
      }
    }, {
      "label" : {
        "xml:lang" : "en",
        "type" : "literal",
        "value" : "Hauff"
      },
      "qid" : {
        "type" : "literal",
        "value" : "Q250"
      }
    }, {
      "label" : {
        "xml:lang" : "en",
        "type" : "literal",
        "value" : "Ilford"
      },
      "qid" : {
        "type" : "literal",
        "value" : "Q313"
      }
    }, {
      "label" : {
        "xml:lang" : "en",
        "type" : "literal",
        "value" : "Ilves"
      },
      "qid" : {
        "type" : "literal",
        "value" : "Q251"
      }
    }, {
      "label" : {
        "xml:lang" : "en",
        "type" : "literal",
        "value" : "Kentmere"
      },
      "qid" : {
        "type" : "literal",
        "value" : "Q321"
      }
    }, {
      "label" : {
        "xml:lang" : "en",
        "type" : "literal",
        "value" : "Kilophot Wien"
      },
      "qid" : {
        "type" : "literal",
        "value" : "Q322"
      }
    }, {
      "label" : {
        "xml:lang" : "en",
        "type" : "literal",
        "value" : "Kodak"
      },
      "qid" : {
        "type" : "literal",
        "value" : "Q323"
      }
    }, {
      "label" : {
        "xml:lang" : "en",
        "type" : "literal",
        "value" : "L. GEVAERT & Co. (Cie.)"
      },
      "qid" : {
        "type" : "literal",
        "value" : "Q311"
      }
    }, {
      "label" : {
        "xml:lang" : "en",
        "type" : "literal",
        "value" : "Labaphot"
      },
      "qid" : {
        "type" : "literal",
        "value" : "Q324"
      }
    }, {
      "label" : {
        "xml:lang" : "en",
        "type" : "literal",
        "value" : "Lainer & Hrdliczka"
      },
      "qid" : {
        "type" : "literal",
        "value" : "Q325"
      }
    }, {
      "label" : {
        "xml:lang" : "en",
        "type" : "literal",
        "value" : "Leonar"
      },
      "qid" : {
        "type" : "literal",
        "value" : "Q326"
      }
    }, {
      "label" : {
        "xml:lang" : "en",
        "type" : "literal",
        "value" : "Lumière"
      },
      "qid" : {
        "type" : "literal",
        "value" : "Q327"
      }
    }, {
      "label" : {
        "xml:lang" : "en",
        "type" : "literal",
        "value" : "Mimosa"
      },
      "qid" : {
        "type" : "literal",
        "value" : "Q328"
      }
    }, {
      "label" : {
        "xml:lang" : "en",
        "type" : "literal",
        "value" : "N.V. Gevaert Photo-Producten"
      },
      "qid" : {
        "type" : "literal",
        "value" : "Q310"
      }
    }, {
      "label" : {
        "xml:lang" : "en",
        "type" : "literal",
        "value" : "Nepera Chemical Company"
      },
      "qid" : {
        "type" : "literal",
        "value" : "Q336"
      }
    }, {
      "label" : {
        "xml:lang" : "en",
        "type" : "literal",
        "value" : "Neue Photographische Gesellschaft"
      },
      "qid" : {
        "type" : "literal",
        "value" : "Q329"
      }
    }, {
      "label" : {
        "xml:lang" : "en",
        "type" : "literal",
        "value" : "Paget Prize Plate Company"
      },
      "qid" : {
        "type" : "literal",
        "value" : "Q330"
      }
    }, {
      "label" : {
        "xml:lang" : "en",
        "type" : "literal",
        "value" : "Rajar"
      },
      "qid" : {
        "type" : "literal",
        "value" : "Q331"
      }
    }, {
      "label" : {
        "xml:lang" : "en",
        "type" : "literal",
        "value" : "Remington Rand"
      },
      "qid" : {
        "type" : "literal",
        "value" : "Q237"
      }
    }, {
      "label" : {
        "xml:lang" : "en",
        "type" : "literal",
        "value" : "Risse"
      },
      "qid" : {
        "type" : "literal",
        "value" : "Q332"
      }
    }, {
      "label" : {
        "xml:lang" : "en",
        "type" : "literal",
        "value" : "Sury"
      },
      "qid" : {
        "type" : "literal",
        "value" : "Q264"
      }
    }, {
      "label" : {
        "xml:lang" : "en",
        "type" : "literal",
        "value" : "Technophot"
      },
      "qid" : {
        "type" : "literal",
        "value" : "Q266"
      }
    }, {
      "label" : {
        "xml:lang" : "en",
        "type" : "literal",
        "value" : "Tellko"
      },
      "qid" : {
        "type" : "literal",
        "value" : "Q267"
      }
    }, {
      "label" : {
        "xml:lang" : "en",
        "type" : "literal",
        "value" : "Thomas Illingworth & Co"
      },
      "qid" : {
        "type" : "literal",
        "value" : "Q333"
      }
    }, {
      "label" : {
        "xml:lang" : "en",
        "type" : "literal",
        "value" : "Tuma"
      },
      "qid" : {
        "type" : "literal",
        "value" : "Q268"
      }
    }, {
      "label" : {
        "xml:lang" : "en",
        "type" : "literal",
        "value" : "Tura"
      },
      "qid" : {
        "type" : "literal",
        "value" : "Q334"
      }
    }, {
      "label" : {
        "xml:lang" : "en",
        "type" : "literal",
        "value" : "VEB Fotochemische Werke"
      },
      "qid" : {
        "type" : "literal",
        "value" : "Q335"
      }
    }, {
      "label" : {
        "xml:lang" : "en",
        "type" : "literal",
        "value" : "Voigtländer"
      },
      "qid" : {
        "type" : "literal",
        "value" : "Q337"
      }
    }, {
      "label" : {
        "xml:lang" : "en",
        "type" : "literal",
        "value" : "Wellington and Ward"
      },
      "qid" : {
        "type" : "literal",
        "value" : "Q273"
      }
    }, {
      "label" : {
        "xml:lang" : "en",
        "type" : "literal",
        "value" : "Wellington and Ward Ltd"
      },
      "qid" : {
        "type" : "literal",
        "value" : "Q3577"
      }
    }, {
      "label" : {
        "xml:lang" : "en",
        "type" : "literal",
        "value" : "Zunow"
      },
      "qid" : {
        "type" : "literal",
        "value" : "Q338"
      }
    } ]
  }
}