{
  "head" : {
    "vars" : [ "qid", "label", "iiif_manifest" ]
  },
  "results" : {
    "bindings" : [ {
      "qid" : {
        "type" : "literal",
        "value" : "Q1101"
      },
      "label" : {
        "xml:lang" : "en",
        "type" : "literal",
        "value" : "Orthobrom K35N"
      },
      "iiif_manifest" : {
        "type" : "uri",
        "value" : "https://museumstichting.resourcespace.com/iiif/ark%253A%252F33179%252FF_2014_0664/manifest"
      }
    }, {
      "qid" : {
        "type" : "literal",
        "value" : "Q1102"
      },
      "label" : {
        "xml:lang" : "en",
        "type" : "literal",
        "value" : "Orthobrom K35N"
      },
      "iiif_manifest" : {
        "type" : "uri",
        "value" : "https://museumstichting.resourcespace.com/iiif/ark%253A%252F33179%252FF_2014_0642/manifest"
      }
    }, {
      "qid" : {
        "type" : "literal",
        "value" : "Q1103"
      },
      "label" : {
        "xml:lang" : "en",
        "type" : "literal",
        "value" : "Orthobrom K35N"
      },
      "iiif_manifest" : {
        "type" : "uri",
        "value" : "https://museumstichting.resourcespace.com/iiif/ark%253A%252F33179%252FF_2014_0643/manifest"
      }
    }, {
      "qid" : {
        "type" : "literal",
        "value" : "Q1104"
      },
      "label" : {
        "xml:lang" : "en",
        "type" : "literal",
        "value" : "Orthobrom K35N"
      },
      "iiif_manifest" : {
        "type" : "uri",
        "value" : "https://museumstichting.resourcespace.com/iiif/ark%253A%252F33179%252FF_2014_0644/manifest"
      }
    } ]
  }
}