{
  "head" : {
    "vars" : [ "qid", "label", "iiif_manifest" ]
  },
  "results" : {
    "bindings" : [ {
      "qid" : {
        "type" : "literal",
        "value" : "Q952"
      },
      "label" : {
        "xml:lang" : "en",
        "type" : "literal",
        "value" : "Gevarto 8XV"
      },
      "iiif_manifest" : {
        "type" : "uri",
        "value" : "https://museumstichting.resourcespace.com/iiif/ark%253A%252F33179%252FF_2014_0538/manifest"
      }
    }, {
      "qid" : {
        "type" : "literal",
        "value" : "Q953"
      },
      "label" : {
        "xml:lang" : "en",
        "type" : "literal",
        "value" : "Gevarto 8XV"
      },
      "iiif_manifest" : {
        "type" : "uri",
        "value" : "https://museumstichting.resourcespace.com/iiif/ark%253A%252F33179%252FF_2014_0555/manifest"
      }
    }, {
      "qid" : {
        "type" : "literal",
        "value" : "Q954"
      },
      "label" : {
        "xml:lang" : "en",
        "type" : "literal",
        "value" : "Gevarto 8XV"
      },
      "iiif_manifest" : {
        "type" : "uri",
        "value" : "https://museumstichting.resourcespace.com/iiif/ark%253A%252F33179%252FF_2014_0556/manifest"
      }
    }, {
      "qid" : {
        "type" : "literal",
        "value" : "Q955"
      },
      "label" : {
        "xml:lang" : "en",
        "type" : "literal",
        "value" : "Gevarto 8XV"
      },
      "iiif_manifest" : {
        "type" : "uri",
        "value" : "https://museumstichting.resourcespace.com/iiif/ark%253A%252F33179%252FF_2014_0557/manifest"
      }
    } ]
  }
}