{
  "head" : {
    "vars" : [ "qid", "label", "iiif_manifest" ]
  },
  "results" : {
    "bindings" : [ {
      "qid" : {
        "type" : "literal",
        "value" : "Q1279"
      },
      "label" : {
        "xml:lang" : "en",
        "type" : "literal",
        "value" : "Ridax 8UV"
      },
      "iiif_manifest" : {
        "type" : "uri",
        "value" : "https://museumstichting.resourcespace.com/iiif/ark%253A%252F33179%252FF_1974_0181/manifest"
      }
    }, {
      "qid" : {
        "type" : "literal",
        "value" : "Q1280"
      },
      "label" : {
        "xml:lang" : "en",
        "type" : "literal",
        "value" : "Ridax 8UV"
      },
      "iiif_manifest" : {
        "type" : "uri",
        "value" : "https://museumstichting.resourcespace.com/iiif/ark%253A%252F33179%252F001-GEV_0016_0044/manifest"
      }
    }, {
      "qid" : {
        "type" : "literal",
        "value" : "Q1281"
      },
      "label" : {
        "xml:lang" : "en",
        "type" : "literal",
        "value" : "Ridax 8UV"
      },
      "iiif_manifest" : {
        "type" : "uri",
        "value" : "https://museumstichting.resourcespace.com/iiif/ark%253A%252F33179%252FF_2014_0594/manifest"
      }
    }, {
      "qid" : {
        "type" : "literal",
        "value" : "Q1282"
      },
      "label" : {
        "xml:lang" : "en",
        "type" : "literal",
        "value" : "Ridax 8UV"
      },
      "iiif_manifest" : {
        "type" : "uri",
        "value" : "https://museumstichting.resourcespace.com/iiif/ark%253A%252F33179%252FF_2014_0595/manifest"
      }
    }, {
      "qid" : {
        "type" : "literal",
        "value" : "Q1283"
      },
      "label" : {
        "xml:lang" : "en",
        "type" : "literal",
        "value" : "Ridax 8UV"
      },
      "iiif_manifest" : {
        "type" : "uri",
        "value" : "https://museumstichting.resourcespace.com/iiif/ark%253A%252F33179%252FF_2014_0559/manifest"
      }
    }, {
      "qid" : {
        "type" : "literal",
        "value" : "Q1284"
      },
      "label" : {
        "xml:lang" : "en",
        "type" : "literal",
        "value" : "Ridax 8UV"
      },
      "iiif_manifest" : {
        "type" : "uri",
        "value" : "https://museumstichting.resourcespace.com/iiif/ark%253A%252F33179%252FF_2014_0560/manifest"
      }
    }, {
      "qid" : {
        "type" : "literal",
        "value" : "Q1285"
      },
      "label" : {
        "xml:lang" : "en",
        "type" : "literal",
        "value" : "Ridax 8UV"
      },
      "iiif_manifest" : {
        "type" : "uri",
        "value" : "https://museumstichting.resourcespace.com/iiif/ark%253A%252F33179%252FF_2014_0563/manifest"
      }
    }, {
      "qid" : {
        "type" : "literal",
        "value" : "Q1286"
      },
      "label" : {
        "xml:lang" : "en",
        "type" : "literal",
        "value" : "Ridax 8UV"
      },
      "iiif_manifest" : {
        "type" : "uri",
        "value" : "https://museumstichting.resourcespace.com/iiif/ark%253A%252F33179%252FF_2014_0564/manifest"
      }
    }, {
      "qid" : {
        "type" : "literal",
        "value" : "Q1287"
      },
      "label" : {
        "xml:lang" : "en",
        "type" : "literal",
        "value" : "Ridax 8UV"
      },
      "iiif_manifest" : {
        "type" : "uri",
        "value" : "https://museumstichting.resourcespace.com/iiif/ark%253A%252F33179%252FF_2014_0565/manifest"
      }
    }, {
      "qid" : {
        "type" : "literal",
        "value" : "Q1288"
      },
      "label" : {
        "xml:lang" : "en",
        "type" : "literal",
        "value" : "Ridax 8UV"
      },
      "iiif_manifest" : {
        "type" : "uri",
        "value" : "https://museumstichting.resourcespace.com/iiif/ark%253A%252F33179%252FF_2014_0607/manifest"
      }
    }, {
      "qid" : {
        "type" : "literal",
        "value" : "Q1289"
      },
      "label" : {
        "xml:lang" : "en",
        "type" : "literal",
        "value" : "Ridax 8UV"
      },
      "iiif_manifest" : {
        "type" : "uri",
        "value" : "https://museumstichting.resourcespace.com/iiif/ark%253A%252F33179%252FF_2014_0608/manifest"
      }
    }, {
      "qid" : {
        "type" : "literal",
        "value" : "Q1290"
      },
      "label" : {
        "xml:lang" : "en",
        "type" : "literal",
        "value" : "Ridax 8UV"
      },
      "iiif_manifest" : {
        "type" : "uri",
        "value" : "https://museumstichting.resourcespace.com/iiif/ark%253A%252F33179%252FF_2014_0609/manifest"
      }
    } ]
  }
}