{
  "head" : {
    "vars" : [ "qid", "label", "iiif_manifest" ]
  },
  "results" : {
    "bindings" : [ {
      "qid" : {
        "type" : "literal",
        "value" : "Q1291"
      },
      "label" : {
        "xml:lang" : "en",
        "type" : "literal",
        "value" : "Ridax 8V"
      },
      "iiif_manifest" : {
        "type" : "uri",
        "value" : "https://museumstichting.resourcespace.com/iiif/ark%253A%252F33179%252F001-GEV_0016_0044/manifest"
      }
    }, {
      "qid" : {
        "type" : "literal",
        "value" : "Q1292"
      },
      "label" : {
        "xml:lang" : "en",
        "type" : "literal",
        "value" : "Ridax 8V"
      },
      "iiif_manifest" : {
        "type" : "uri",
        "value" : "https://museumstichting.resourcespace.com/iiif/ark%253A%252F33179%252FF_2014_0291/manifest"
      }
    }, {
      "qid" : {
        "type" : "literal",
        "value" : "Q1293"
      },
      "label" : {
        "xml:lang" : "en",
        "type" : "literal",
        "value" : "Ridax 8V"
      },
      "iiif_manifest" : {
        "type" : "uri",
        "value" : "https://museumstichting.resourcespace.com/iiif/ark%253A%252F33179%252FF_2014_0276/manifest"
      }
    }, {
      "qid" : {
        "type" : "literal",
        "value" : "Q1294"
      },
      "label" : {
        "xml:lang" : "en",
        "type" : "literal",
        "value" : "Ridax 8V"
      },
      "iiif_manifest" : {
        "type" : "uri",
        "value" : "https://museumstichting.resourcespace.com/iiif/ark%253A%252F33179%252FF_2014_0558/manifest"
      }
    }, {
      "qid" : {
        "type" : "literal",
        "value" : "Q1295"
      },
      "label" : {
        "xml:lang" : "en",
        "type" : "literal",
        "value" : "Ridax 8V"
      },
      "iiif_manifest" : {
        "type" : "uri",
        "value" : "https://museumstichting.resourcespace.com/iiif/ark%253A%252F33179%252FF_2014_0577/manifest"
      }
    }, {
      "qid" : {
        "type" : "literal",
        "value" : "Q1296"
      },
      "label" : {
        "xml:lang" : "en",
        "type" : "literal",
        "value" : "Ridax 8V"
      },
      "iiif_manifest" : {
        "type" : "uri",
        "value" : "https://museumstichting.resourcespace.com/iiif/ark%253A%252F33179%252FF_2014_0578/manifest"
      }
    }, {
      "qid" : {
        "type" : "literal",
        "value" : "Q1297"
      },
      "label" : {
        "xml:lang" : "en",
        "type" : "literal",
        "value" : "Ridax 8V"
      },
      "iiif_manifest" : {
        "type" : "uri",
        "value" : "https://museumstichting.resourcespace.com/iiif/ark%253A%252F33179%252FF_2014_0579/manifest"
      }
    }, {
      "qid" : {
        "type" : "literal",
        "value" : "Q1298"
      },
      "label" : {
        "xml:lang" : "en",
        "type" : "literal",
        "value" : "Ridax 8V"
      },
      "iiif_manifest" : {
        "type" : "uri",
        "value" : "https://museumstichting.resourcespace.com/iiif/ark%253A%252F33179%252FF_2014_0590/manifest"
      }
    }, {
      "qid" : {
        "type" : "literal",
        "value" : "Q1299"
      },
      "label" : {
        "xml:lang" : "en",
        "type" : "literal",
        "value" : "Ridax 8V"
      },
      "iiif_manifest" : {
        "type" : "uri",
        "value" : "https://museumstichting.resourcespace.com/iiif/ark%253A%252F33179%252FF_2014_0591/manifest"
      }
    }, {
      "qid" : {
        "type" : "literal",
        "value" : "Q1300"
      },
      "label" : {
        "xml:lang" : "en",
        "type" : "literal",
        "value" : "Ridax 8V"
      },
      "iiif_manifest" : {
        "type" : "uri",
        "value" : "https://museumstichting.resourcespace.com/iiif/ark%253A%252F33179%252FF_2014_0616/manifest"
      }
    }, {
      "qid" : {
        "type" : "literal",
        "value" : "Q1301"
      },
      "label" : {
        "xml:lang" : "en",
        "type" : "literal",
        "value" : "Ridax 8V"
      },
      "iiif_manifest" : {
        "type" : "uri",
        "value" : "https://museumstichting.resourcespace.com/iiif/ark%253A%252F33179%252FF_2014_0617/manifest"
      }
    }, {
      "qid" : {
        "type" : "literal",
        "value" : "Q1302"
      },
      "label" : {
        "xml:lang" : "en",
        "type" : "literal",
        "value" : "Ridax 8V"
      },
      "iiif_manifest" : {
        "type" : "uri",
        "value" : "https://museumstichting.resourcespace.com/iiif/ark%253A%252F33179%252FF_2014_0618/manifest"
      }
    }, {
      "qid" : {
        "type" : "literal",
        "value" : "Q1303"
      },
      "label" : {
        "xml:lang" : "en",
        "type" : "literal",
        "value" : "Ridax 8V"
      },
      "iiif_manifest" : {
        "type" : "uri",
        "value" : "https://museumstichting.resourcespace.com/iiif/ark%253A%252F33179%252FF_2014_0619/manifest"
      }
    }, {
      "qid" : {
        "type" : "literal",
        "value" : "Q1304"
      },
      "label" : {
        "xml:lang" : "en",
        "type" : "literal",
        "value" : "Ridax 8V"
      },
      "iiif_manifest" : {
        "type" : "uri",
        "value" : "https://museumstichting.resourcespace.com/iiif/ark%253A%252F33179%252FF_2014_0620/manifest"
      }
    }, {
      "qid" : {
        "type" : "literal",
        "value" : "Q1305"
      },
      "label" : {
        "xml:lang" : "en",
        "type" : "literal",
        "value" : "Ridax 8V"
      },
      "iiif_manifest" : {
        "type" : "uri",
        "value" : "https://museumstichting.resourcespace.com/iiif/ark%253A%252F33179%252FF_2014_0753/manifest"
      }
    } ]
  }
}