{
  "head" : {
    "vars" : [ "qid", "label", "iiif_manifest" ]
  },
  "results" : {
    "bindings" : [ {
      "qid" : {
        "type" : "literal",
        "value" : "Q798"
      },
      "label" : {
        "xml:lang" : "en",
        "type" : "literal",
        "value" : "Artona K7V"
      },
      "iiif_manifest" : {
        "type" : "uri",
        "value" : "https://museumstichting.resourcespace.com/iiif/ark%253A%252F33179%252FF_1963_0242/manifest"
      }
    }, {
      "qid" : {
        "type" : "literal",
        "value" : "Q822"
      },
      "label" : {
        "xml:lang" : "en",
        "type" : "literal",
        "value" : "Artona K7V"
      },
      "iiif_manifest" : {
        "type" : "uri",
        "value" : "https://museumstichting.resourcespace.com/iiif/ark%253A%252F33179%252FF_2014_0099a/manifest"
      }
    }, {
      "qid" : {
        "type" : "literal",
        "value" : "Q823"
      },
      "label" : {
        "xml:lang" : "en",
        "type" : "literal",
        "value" : "Artona K7V"
      },
      "iiif_manifest" : {
        "type" : "uri",
        "value" : "https://museumstichting.resourcespace.com/iiif/ark%253A%252F33179%252FF_2014_0099b/manifest"
      }
    }, {
      "qid" : {
        "type" : "literal",
        "value" : "Q824"
      },
      "label" : {
        "xml:lang" : "en",
        "type" : "literal",
        "value" : "Artona K7V"
      },
      "iiif_manifest" : {
        "type" : "uri",
        "value" : "https://museumstichting.resourcespace.com/iiif/ark%253A%252F33179%252FF_2014_0100/manifest"
      }
    }, {
      "qid" : {
        "type" : "literal",
        "value" : "Q825"
      },
      "label" : {
        "xml:lang" : "en",
        "type" : "literal",
        "value" : "Artona K7V"
      },
      "iiif_manifest" : {
        "type" : "uri",
        "value" : "https://museumstichting.resourcespace.com/iiif/ark%253A%252F33179%252FF_2014_0101/manifest"
      }
    }, {
      "qid" : {
        "type" : "literal",
        "value" : "Q826"
      },
      "label" : {
        "xml:lang" : "en",
        "type" : "literal",
        "value" : "Artona K7V"
      },
      "iiif_manifest" : {
        "type" : "uri",
        "value" : "https://museumstichting.resourcespace.com/iiif/ark%253A%252F33179%252FF_2014_0102/manifest"
      }
    }, {
      "qid" : {
        "type" : "literal",
        "value" : "Q827"
      },
      "label" : {
        "xml:lang" : "en",
        "type" : "literal",
        "value" : "Artona K7V"
      },
      "iiif_manifest" : {
        "type" : "uri",
        "value" : "https://museumstichting.resourcespace.com/iiif/ark%253A%252F33179%252FF_2014_0103/manifest"
      }
    } ]
  }
}