{
  "head" : {
    "vars" : [ "qid", "label", "iiif_manifest" ]
  },
  "results" : {
    "bindings" : [ {
      "qid" : {
        "type" : "literal",
        "value" : "Q1368"
      },
      "label" : {
        "xml:lang" : "en",
        "type" : "literal",
        "value" : "Ridax UV"
      },
      "iiif_manifest" : {
        "type" : "uri",
        "value" : "https://museumstichting.resourcespace.com/iiif/ark%253A%252F33179%252FF_1971_0189/manifest"
      }
    }, {
      "qid" : {
        "type" : "literal",
        "value" : "Q1369"
      },
      "label" : {
        "xml:lang" : "en",
        "type" : "literal",
        "value" : "Ridax UV"
      },
      "iiif_manifest" : {
        "type" : "uri",
        "value" : "https://museumstichting.resourcespace.com/iiif/ark%253A%252F33179%252FF_1974_0192/manifest"
      }
    } ]
  }
}