{
  "head" : {
    "vars" : [ "qid", "label", "iiif_manifest" ]
  },
  "results" : {
    "bindings" : [ {
      "qid" : {
        "type" : "literal",
        "value" : "Q1360"
      },
      "label" : {
        "xml:lang" : "en",
        "type" : "literal",
        "value" : "Ridax K8M"
      },
      "iiif_manifest" : {
        "type" : "uri",
        "value" : "https://museumstichting.resourcespace.com/iiif/ark%253A%252F33179%252F001-GEV_0016_0044/manifest"
      }
    }, {
      "qid" : {
        "type" : "literal",
        "value" : "Q1361"
      },
      "label" : {
        "xml:lang" : "en",
        "type" : "literal",
        "value" : "Ridax K8M"
      },
      "iiif_manifest" : {
        "type" : "uri",
        "value" : "https://museumstichting.resourcespace.com/iiif/ark%253A%252F33179%252F001-GEV_0016_0044/manifest"
      }
    } ]
  }
}