{
  "head" : {
    "vars" : [ "conditionLabel" ]
  },
  "results" : {
    "bindings" : [ {
      "conditionLabel" : {
        "xml:lang" : "en",
        "type" : "literal",
        "value" : "Complete"
      }
    } ]
  }
}