{
  "head" : {
    "vars" : [ "producers", "production_dates" ]
  },
  "results" : {
    "bindings" : [ {
      "producers" : {
        "type" : "literal",
        "value" : "Agfa-Gevaert"
      }
    } ]
  }
}