{
  "head" : {
    "vars" : [ "producers", "production_dates" ]
  },
  "results" : {
    "bindings" : [ {
      "producers" : {
        "type" : "literal",
        "value" : "N.V. Gevaert Photo-Producten|L. GEVAERT & Co. (Cie.)"
      },
      "production_dates" : {
        "type" : "literal",
        "value" : "1909-"
      }
    } ]
  }
}